{
  "project_info": {
    "project_number": "222202481262",
    "project_id": "need-burger-d3322",
    "storage_bucket": "need-burger-d3322.appspot.com"
  },
  "client": [
    {
      "client_info": {
        "mobilesdk_app_id": "1:222202481262:android:7552e4d53c22e54552747f",
        "android_client_info": {
          "package_name": "com.needburger.app"
        }
      },
      "oauth_client": [
        {
          "client_id": "222202481262-s8bn3vek4b6k4js3p7sp5v5ci73cnssf.apps.googleusercontent.com",
          "client_type": 3
        }
      ],
      "api_key": [
        {
          "current_key": "AIzaSyBQ8JmzpQUX2R-3lRPh2WC45cP2ajpa9Ko"
        }
      ],
      "services": {
        "appinvite_service": {
          "other_platform_oauth_client": [
            {
              "client_id": "222202481262-s8bn3vek4b6k4js3p7sp5v5ci73cnssf.apps.googleusercontent.com",
              "client_type": 3
            }
          ]
        }
      }
    }
  ],
  "configuration_version": "1"
}